#FIG 3.1
Portrait
Center
Inches
1200 2
1 3 0 1 -1 7 0 0 0 0.0000000 1 0.000 1200 1200 150 150 1200 1200 1200 1350
1 3 0 1 -1 7 0 0 0 0.0000000 1 0.000 3600 1200 150 150 3600 1200 3600 1350
1 3 0 1 -1 7 0 0 0 0.0000000 1 0.000 3600 3600 150 150 3600 3600 3600 3750
1 3 0 1 -1 7 0 0 0 0.0000000 1 0.000 1200 3600 168 168 1200 3600 1275 3750
2 2 0 2 -1 7 0 0 -1 0.000 0 0 0 0 0 5
	 1200 1200 3600 1200 3600 3600 1200 3600 1200 1200
2 1 0 2 -1 7 0 0 -1 0.000 0 0 -1 0 0 2
	 3600 1200 1200 3600
4 1 -1 0 0 3 20 0.0000000 2 135 150 2400 975 a\001
4 1 -1 0 0 3 20 0.0000000 2 210 135 900 2475 b\001
4 1 -1 0 0 3 20 0.0000000 2 135 120 2250 2325 c\001
4 1 -1 0 0 3 20 0.0000000 2 210 150 3825 2475 d\001
4 1 -1 0 0 3 20 0.0000000 2 135 120 2400 3975 e\001
