#FIG 3.1
Landscape
Center
Inches
1200 2
1 3 0 3 -1 24 5 0 20 0.0000000 1 0.000 1200 1500 150 150 1200 1500 1200 1650
1 3 0 3 -1 24 5 0 20 0.0000000 1 0.000 1800 2100 150 150 1800 2100 1800 2250
1 3 0 3 -1 24 5 0 20 0.0000000 1 0.000 3600 1500 150 150 3600 1500 3600 1650
1 3 0 3 -1 24 5 0 20 0.0000000 1 0.000 4200 2100 150 150 4200 2100 4200 2250
1 3 0 3 -1 24 5 0 20 0.0000000 1 0.000 2400 600 150 150 2400 600 2400 750
2 1 0 3 10 24 10 0 20 0.000 0 0 7 0 0 2
	 1800 2100 2400 2700
2 1 0 3 10 24 10 0 20 0.000 0 0 7 0 0 2
	 1800 2100 1200 2700
2 1 0 3 10 24 10 0 20 0.000 0 0 7 0 0 2
	 1200 1500 600 2100
2 1 0 3 0 24 10 0 20 0.000 0 0 7 0 0 2
	 1200 1500 1800 2100
2 2 0 3 0 3 10 0 20 0.000 0 0 0 0 0 5
	 600 2100 600 2100 600 2100 600 2100 600 2100
2 2 0 3 10 3 10 0 20 0.000 0 0 0 0 0 5
	 450 1950 750 1950 750 2250 450 2250 450 1950
2 2 0 3 10 3 10 0 20 0.000 0 0 0 0 0 5
	 1050 2550 1350 2550 1350 2850 1050 2850 1050 2550
2 2 0 3 10 3 10 0 20 0.000 0 0 0 0 0 5
	 2250 2550 2550 2550 2550 2850 2250 2850 2250 2550
2 1 0 3 0 24 10 0 20 0.000 0 0 7 0 0 2
	 3600 1500 4200 2100
2 1 0 3 10 24 10 0 20 0.000 0 0 7 0 0 2
	 3600 1500 3000 2100
2 2 0 3 10 3 10 0 20 0.000 0 0 0 0 0 5
	 2850 1950 3150 1950 3150 2250 2850 2250 2850 1950
2 1 0 3 10 24 10 0 20 0.000 0 0 7 0 0 2
	 4200 2100 4800 2700
2 2 0 3 10 3 10 0 20 0.000 0 0 0 0 0 5
	 4650 2550 4950 2550 4950 2850 4650 2850 4650 2550
2 1 0 3 10 24 10 0 20 0.000 0 0 7 0 0 2
	 4200 2100 3600 2700
2 1 0 3 0 3 10 0 20 0.000 0 0 -1 0 0 2
	 2400 600 1200 1500
2 1 0 3 0 3 10 0 20 0.000 0 0 -1 0 0 2
	 2400 600 3600 1500
2 2 0 3 10 3 5 0 20 0.000 0 0 0 0 0 5
	 3450 2550 3750 2550 3750 2850 3450 2850 3450 2550
