#FIG 3.1
Landscape
Center
Inches
1200 2
1 3 0 2 -1 24 0 0 20 0.0000000 1 0.000 900 3900 150 150 900 3900 900 4050
1 3 0 2 -1 24 0 0 20 0.0000000 1 0.000 1350 3000 150 150 1350 3000 1350 3150
1 3 0 2 -1 24 0 0 20 0.0000000 1 0.000 1800 2100 150 150 1800 2100 1800 2250
1 3 0 2 -1 24 0 0 20 0.0000000 1 0.000 2250 1200 150 150 2250 1200 2250 1350
1 3 0 2 -1 24 0 0 20 0.0000000 1 0.000 2700 300 150 150 2700 300 2700 450
1 3 0 2 -1 24 0 0 20 0.0000000 1 0.000 3750 3000 150 150 3750 3000 3750 3150
1 3 0 2 -1 24 0 0 20 0.0000000 1 0.000 4950 3000 150 150 4950 3000 4950 3150
1 3 0 2 -1 24 0 0 20 0.0000000 1 0.000 4350 2100 150 150 4350 2100 4350 2250
1 3 0 2 -1 24 0 0 20 0.0000000 1 0.000 4800 1200 150 150 4800 1200 4800 1350
1 3 0 2 -1 24 0 0 20 0.0000000 1 0.000 5250 300 150 150 5250 300 5250 450
1 3 0 2 -1 24 0 0 20 0.0000000 1 0.000 6600 3000 150 150 6600 3000 6600 3150
1 3 0 2 -1 24 0 0 20 0.0000000 1 0.000 6600 3000 150 150 6600 3000 6600 3150
1 3 0 2 -1 24 0 0 20 0.0000000 1 0.000 7200 2100 150 150 7200 2100 7200 2250
1 3 0 2 -1 24 0 0 20 0.0000000 1 0.000 7800 1200 150 150 7800 1200 7800 1350
1 3 0 2 -1 24 0 0 20 0.0000000 1 0.000 8400 300 150 150 8400 300 8400 450
1 3 0 2 -1 24 0 0 20 0.0000000 1 0.000 8400 2100 150 150 8400 2100 8400 2250
1 3 0 2 -1 24 0 0 20 0.0000000 1 0.000 10200 3000 150 150 10200 3000 10200 3150
1 3 0 2 -1 24 0 0 20 0.0000000 1 0.000 10800 2100 150 150 10800 2100 10800 2250
1 3 0 2 -1 24 0 0 20 0.0000000 1 0.000 11400 1200 150 150 11400 1200 11400 1350
1 3 0 2 -1 24 0 0 20 0.0000000 1 0.000 12000 300 150 150 12000 300 12000 450
1 3 0 2 -1 24 0 0 20 0.0000000 1 0.000 12600 1200 150 150 12600 1200 12600 1350
1 3 0 2 -1 24 0 0 20 0.0000000 1 0.000 14100 2100 150 150 14100 2100 14100 2250
1 3 0 2 -1 24 0 0 20 0.0000000 1 0.000 14700 1200 150 150 14700 1200 14700 1350
1 3 0 2 -1 24 0 0 20 0.0000000 1 0.000 15600 300 150 150 15600 300 15600 450
1 3 0 2 -1 24 0 0 20 0.0000000 1 0.000 16500 1200 150 150 16500 1200 16500 1350
1 3 0 2 -1 24 0 0 20 0.0000000 1 0.000 15300 2100 150 150 15300 2100 15300 2250
1 3 0 2 -1 24 0 0 20 0.0000000 1 0.000 18000 2100 150 150 18000 2100 18000 2250
1 3 0 2 -1 24 0 0 20 0.0000000 1 0.000 18600 1200 150 150 18600 1200 18600 1350
1 3 0 2 -1 24 0 0 20 0.0000000 1 0.000 20400 1200 150 150 20400 1200 20400 1350
1 3 0 2 -1 24 0 0 20 0.0000000 1 0.000 19500 300 150 150 19500 300 19500 450
1 3 0 2 -1 24 0 0 20 0.0000000 1 0.000 19800 2100 150 150 19800 2100 19800 2250
2 2 0 2 10 3 0 0 20 0.000 0 0 7 0 0 5
	 300 4650 600 4650 600 4950 300 4950 300 4650
2 2 0 2 10 3 0 0 20 0.000 0 0 7 0 0 5
	 1200 4650 1500 4650 1500 4950 1200 4950 1200 4650
2 2 0 2 10 3 0 0 20 0.000 0 0 7 0 0 5
	 1650 3750 1950 3750 1950 4050 1650 4050 1650 3750
2 2 0 2 10 3 0 0 20 0.000 0 0 7 0 0 5
	 2100 2850 2400 2850 2400 3150 2100 3150 2100 2850
2 2 0 2 10 3 0 0 20 0.000 0 0 7 0 0 5
	 3000 1050 3300 1050 3300 1350 3000 1350 3000 1050
2 2 0 2 10 3 0 0 20 0.000 0 0 7 0 0 5
	 3300 3750 3600 3750 3600 4050 3300 4050 3300 3750
2 2 0 2 10 3 0 0 20 0.000 0 0 7 0 0 5
	 3900 3750 4200 3750 4200 4050 3900 4050 3900 3750
2 2 0 2 10 3 0 0 20 0.000 0 0 7 0 0 5
	 4500 3750 4800 3750 4800 4050 4500 4050 4500 3750
2 2 0 2 10 3 0 0 20 0.000 0 0 7 0 0 5
	 5100 3750 5400 3750 5400 4050 5100 4050 5100 3750
2 2 0 2 10 3 0 0 20 0.000 0 0 7 0 0 5
	 5250 1950 5550 1950 5550 2250 5250 2250 5250 1950
2 2 0 2 10 3 0 0 20 0.000 0 0 7 0 0 5
	 5700 1050 6000 1050 6000 1350 5700 1350 5700 1050
2 2 0 2 10 3 0 0 20 0.000 0 0 7 0 0 5
	 2550 1950 2850 1950 2850 2250 2550 2250 2550 1950
2 1 0 2 10 3 5 0 20 0.000 0 0 -1 0 0 2
	 2700 300 3150 1200
2 1 0 2 10 3 5 0 20 0.000 0 0 -1 0 0 2
	 2250 1275 2700 2100
2 1 0 2 10 3 5 0 20 0.000 0 0 -1 0 0 2
	 1800 2175 2250 3000
2 1 0 2 10 3 5 0 20 0.000 0 0 -1 0 0 2
	 1350 3000 1800 3900
2 1 0 2 10 3 5 0 20 0.000 0 0 -1 0 0 2
	 900 3900 1350 4800
2 1 0 2 10 3 5 0 20 0.000 0 0 -1 0 0 2
	 900 3900 450 4800
2 1 0 2 10 3 5 0 -1 0.000 0 0 -1 0 0 3
	 3450 3900 3750 3000 4050 3900
2 1 0 2 10 3 5 0 -1 0.000 0 0 -1 0 0 3
	 4650 3900 4950 3000 5250 3900
2 1 0 2 10 3 5 0 -1 0.000 0 0 -1 0 0 2
	 4800 1200 5400 2100
2 1 0 2 10 3 5 0 -1 0.000 0 0 -1 0 0 2
	 5250 300 5850 1200
2 1 0 5 0 3 5 0 -1 0.000 0 0 -1 0 0 2
	 2700 300 900 3900
2 1 0 5 0 3 5 0 -1 0.000 0 0 -1 0 0 2
	 5250 300 4350 2100
2 1 0 5 0 3 5 0 -1 0.000 0 0 -1 0 0 2
	 4350 2100 4950 3000
2 1 0 5 0 3 5 0 -1 0.000 0 0 -1 0 0 2
	 4350 2100 3750 3000
2 1 0 5 0 3 5 0 -1 0.000 0 0 -1 0 0 2
	 7200 2100 6600 3000
2 1 0 5 0 3 5 0 -1 0.000 0 0 -1 0 0 2
	 7840 1177 7240 2077
2 1 0 5 0 3 5 0 -1 0.000 0 0 -1 0 0 2
	 8440 277 7840 1177
2 1 0 2 10 3 5 0 -1 0.000 0 0 -1 0 0 3
	 6300 3900 6600 3000 6900 3900
2 2 0 2 10 3 0 0 20 0.000 0 0 7 0 0 5
	 6150 3750 6450 3750 6450 4050 6150 4050 6150 3750
2 2 0 2 10 3 0 0 20 0.000 0 0 7 0 0 5
	 6750 3750 7050 3750 7050 4050 6750 4050 6750 3750
2 1 0 2 10 3 5 0 -1 0.000 0 0 -1 0 0 3
	 8100 3000 8400 2100 8700 3000
2 1 0 2 10 3 5 0 -1 0.000 0 0 -1 0 0 2
	 8400 300 9000 1200
2 2 0 2 10 3 0 0 20 0.000 0 0 7 0 0 5
	 8850 1050 9150 1050 9150 1350 8850 1350 8850 1050
2 2 0 2 10 3 0 0 20 0.000 0 0 7 0 0 5
	 8550 2850 8850 2850 8850 3150 8550 3150 8550 2850
2 2 0 2 10 3 0 0 20 0.000 0 0 7 0 0 5
	 7950 2850 8250 2850 8250 3150 7950 3150 7950 2850
2 2 0 2 10 3 0 0 20 0.000 0 0 7 0 0 5
	 7350 2850 7650 2850 7650 3150 7350 3150 7350 2850
2 1 0 5 0 3 5 0 -1 0.000 0 0 -1 0 0 2
	 11965 352 11365 1252
2 1 0 5 0 3 5 0 -1 0.000 0 0 -1 0 0 2
	 10840 2077 10240 2977
2 1 0 5 0 3 5 0 -1 0.000 0 0 -1 0 0 2
	 11400 1200 10800 2100
2 1 0 5 0 3 5 0 -1 0.000 0 0 -1 0 0 2
	 11982 311 12582 1211
2 1 0 5 0 3 5 0 -1 0.000 0 0 -1 0 0 2
	 7800 1199 8400 2099
2 2 0 2 10 3 0 0 20 0.000 0 0 7 0 0 5
	 11550 1950 11850 1950 11850 2250 11550 2250 11550 1950
2 2 0 2 10 3 0 0 20 0.000 0 0 7 0 0 5
	 12150 1950 12450 1950 12450 2250 12150 2250 12150 1950
2 2 0 2 10 3 0 0 20 0.000 0 0 7 0 0 5
	 12750 1950 13050 1950 13050 2250 12750 2250 12750 1950
2 1 0 2 10 3 5 0 -1 0.000 0 0 -1 0 0 3
	 9922 3893 10222 2993 10522 3893
2 2 0 2 10 3 0 0 20 0.000 0 0 7 0 0 5
	 10350 3750 10650 3750 10650 4050 10350 4050 10350 3750
2 2 0 2 10 3 0 0 20 0.000 0 0 7 0 0 5
	 9750 3750 10050 3750 10050 4050 9750 4050 9750 3750
2 1 0 2 10 3 5 0 -1 0.000 0 0 -1 0 0 2
	 10800 2100 11400 3000
2 2 0 2 10 3 0 0 20 0.000 0 0 7 0 0 5
	 11250 2850 11550 2850 11550 3150 11250 3150 11250 2850
2 1 0 2 10 3 5 0 -1 0.000 0 0 -1 0 0 3
	 12278 2092 12578 1192 12878 2092
2 1 0 2 10 3 5 0 -1 0.000 0 0 -1 0 0 3
	 13800 2999 14100 2099 14400 2999
2 1 0 2 10 3 5 0 -1 0.000 0 0 -1 0 0 3
	 15000 2999 15300 2099 15600 2999
2 2 0 2 10 3 0 0 20 0.000 0 0 7 0 0 5
	 13650 2850 13950 2850 13950 3150 13650 3150 13650 2850
2 2 0 2 10 3 0 0 20 0.000 0 0 7 0 0 5
	 14250 2850 14550 2850 14550 3150 14250 3150 14250 2850
2 2 0 2 10 3 0 0 20 0.000 0 0 7 0 0 5
	 14850 2850 15150 2850 15150 3150 14850 3150 14850 2850
2 2 0 2 10 3 0 0 20 0.000 0 0 7 0 0 5
	 15450 2850 15750 2850 15750 3150 15450 3150 15450 2850
2 1 0 2 10 3 5 0 -1 0.000 0 0 -1 0 0 3
	 16200 2099 16500 1199 16800 2099
2 2 0 2 10 3 0 0 20 0.000 0 0 7 0 0 5
	 16650 1950 16950 1950 16950 2250 16650 2250 16650 1950
2 2 0 2 10 3 0 0 20 0.000 0 0 7 0 0 5
	 16050 1950 16350 1950 16350 2250 16050 2250 16050 1950
2 1 0 5 0 3 5 0 -1 0.000 0 0 -1 0 0 2
	 14740 1177 14140 2077
2 1 0 5 0 3 5 0 -1 0.000 0 0 -1 0 0 2
	 14659 1176 15259 2076
2 1 0 2 10 3 5 0 -1 0.000 0 0 -1 0 0 3
	 17722 2992 18022 2092 18322 2992
2 1 0 2 10 3 5 0 -1 0.000 0 0 -1 0 0 3
	 19500 2999 19800 2099 20100 2999
2 2 0 2 10 3 0 0 20 0.000 0 0 7 0 0 5
	 17550 2850 17850 2850 17850 3150 17550 3150 17550 2850
2 2 0 2 10 3 0 0 20 0.000 0 0 7 0 0 5
	 18150 2850 18450 2850 18450 3150 18150 3150 18150 2850
2 2 0 2 10 3 0 0 20 0.000 0 0 7 0 0 5
	 19350 2850 19650 2850 19650 3150 19350 3150 19350 2850
2 2 0 2 10 3 0 0 20 0.000 0 0 7 0 0 5
	 19950 2850 20250 2850 20250 3150 19950 3150 19950 2850
2 2 0 2 10 3 0 0 20 0.000 0 0 7 0 0 5
	 18750 1950 19050 1950 19050 2250 18750 2250 18750 1950
2 2 0 2 10 3 0 0 20 0.000 0 0 7 0 0 5
	 20550 1950 20850 1950 20850 2250 20550 2250 20550 1950
2 1 0 5 0 3 5 0 -1 0.000 0 0 -1 0 0 3
	 14700 1200 15600 300 16500 1200
2 1 0 5 0 3 5 0 -1 0.000 0 0 -1 0 0 5
	 18000 2100 18600 1200 19500 300 20400 1200 19800 2100
2 1 0 2 10 3 5 0 -1 0.000 0 0 -1 0 0 2
	 18600 1200 18900 2100
2 1 0 2 10 3 5 0 -1 0.000 0 0 -1 0 0 2
	 20400 1200 20700 2100
2 1 0 2 10 3 5 0 -1 0.000 0 0 -1 0 0 2
	 11400 1200 11700 2100
2 1 0 2 10 3 5 0 -1 0.000 0 0 -1 0 0 2
	 7200 2100 7500 3000
