#FIG 3.1
Landscape
Center
Inches
1200 2
6 674 674 3824 2924
1 3 0 2 8 0 0 0 2 0.0000000 1 0.000 2700 900 168 168 2700 900 2868 1068
1 3 0 2 8 0 0 0 2 0.0000000 1 0.000 2700 1800 168 168 2700 1800 2868 1968
1 3 0 2 8 0 0 0 2 0.0000000 1 0.000 3600 1782 168 168 3600 1782 3768 1950
1 3 0 2 8 0 0 0 2 0.0000000 1 0.000 1800 900 168 168 1800 900 1968 1068
1 3 0 2 8 0 0 0 2 0.0000000 1 0.000 1800 1800 168 168 1800 1800 1968 1968
1 3 0 2 8 0 0 0 2 0.0000000 1 0.000 1800 2700 168 168 1800 2700 1968 2868
1 3 0 2 8 0 0 0 2 0.0000000 1 0.000 900 1800 168 168 900 1800 1068 1968
2 1 0 2 8 0 0 0 12 0.000 0 0 -1 0 0 2
	 1050 1800 1650 1800
2 1 0 2 8 0 0 0 12 0.000 0 0 -1 0 0 2
	 2850 1800 3450 1800
2 1 0 2 8 0 0 0 12 0.000 0 0 -1 0 0 2
	 1800 1050 1800 1650
2 1 0 2 8 0 0 0 12 0.000 0 0 -1 0 0 2
	 2700 1050 2700 1650
2 1 0 2 8 0 0 0 12 0.000 0 0 -1 0 0 2
	 1800 1950 1800 2550
2 1 0 4 8 0 0 0 2 0.000 0 0 7 0 0 2
	 1950 1800 2550 1800
4 0 8 0 0 0 18 0.0000000 4 135 135 1725 1875 a\001
4 0 8 0 0 0 18 0.0000000 4 195 135 2625 1875 b\001
-6
1 3 0 4 8 0 0 0 5 0.0000000 1 0.000 7726 4501 168 168 7726 4501 7894 4669
1 3 0 4 8 0 0 0 5 0.0000000 1 0.000 6826 3751 168 168 6826 3751 6994 3919
1 3 0 4 8 0 0 0 5 0.0000000 1 0.000 6826 4501 168 168 6826 4501 6994 4669
1 3 0 4 8 0 0 0 5 0.0000000 1 0.000 6802 5252 168 168 6802 5252 6970 5420
1 3 0 4 8 0 0 0 5 0.0000000 1 0.000 5926 4501 168 168 5926 4501 6094 4669
1 3 0 4 8 0 0 0 5 0.0000000 1 0.000 5926 5251 168 168 5926 5251 6094 5419
1 3 0 4 8 0 0 0 5 0.0000000 1 0.000 5026 5251 168 168 5026 5251 5194 5419
1 3 0 4 8 0 0 0 5 0.0000000 1 0.000 5252 2702 168 168 5252 2702 5420 2870
1 3 0 4 8 0 0 0 5 0.0000000 1 0.000 6152 1802 168 168 6152 1802 6320 1970
1 3 0 4 8 0 0 0 5 0.0000000 1 0.000 7052 1802 168 168 7052 1802 7220 1970
1 3 0 4 8 0 0 0 5 0.0000000 1 0.000 7952 2684 168 168 7952 2684 8120 2852
1 3 0 4 8 0 0 0 5 0.0000000 1 0.000 7050 900 168 168 7050 900 7218 1068
1 3 0 4 8 0 0 0 5 0.0000000 1 0.000 7032 2682 168 168 7032 2682 7200 2850
1 3 0 4 8 0 0 0 5 0.0000000 1 0.000 6132 2682 168 168 6132 2682 6300 2850
1 3 0 2 8 0 0 0 2 0.0000000 1 0.000 2628 4428 168 168 2628 4428 2796 4596
1 3 0 2 8 0 0 0 2 0.0000000 1 0.000 2604 5179 168 168 2604 5179 2772 5347
1 3 0 2 8 0 0 0 2 0.0000000 1 0.000 1728 4428 168 168 1728 4428 1896 4596
1 3 0 2 8 0 0 0 2 0.0000000 1 0.000 1728 5178 168 168 1728 5178 1896 5346
1 3 0 2 8 0 0 0 2 0.0000000 1 0.000 828 5178 168 168 828 5178 996 5346
1 3 0 2 8 0 0 0 2 0.0000000 1 0.000 3528 4428 168 168 3528 4428 3696 4596
1 3 0 2 8 0 0 0 2 0.0000000 1 0.000 2628 3678 168 168 2628 3678 2796 3846
2 1 0 2 8 0 0 0 44 0.000 0 0 7 0 0 2
	 6671 3861 6066 4376
2 1 0 2 8 0 0 0 44 0.000 0 0 7 0 0 2
	 5799 4603 5166 5146
2 1 0 2 8 0 0 0 44 0.000 0 0 -1 0 0 2
	 6826 3901 6826 4351
2 1 0 2 8 0 0 0 44 0.000 0 0 -1 0 0 2
	 6826 4651 6826 5101
2 1 0 2 8 0 0 0 44 0.000 0 0 -1 0 0 2
	 5926 4651 5926 5101
2 1 0 2 8 0 0 0 12 0.000 0 0 -1 0 0 2
	 5402 2702 6002 2702
2 1 0 2 8 0 0 0 12 0.000 0 0 -1 0 0 2
	 7202 2702 7802 2702
2 1 0 2 8 0 0 0 12 0.000 0 0 -1 0 0 2
	 6152 1952 6152 2552
2 1 0 2 8 0 0 0 12 0.000 0 0 -1 0 0 2
	 7052 1952 7052 2552
2 1 0 2 8 0 0 0 2 0.000 0 0 7 0 0 2
	 6302 2702 6902 2702
2 1 0 2 8 0 0 0 12 0.000 0 0 -1 0 0 2
	 7050 1035 7050 1625
2 1 0 2 8 0 0 0 44 0.000 0 0 7 0 0 2
	 1601 4530 968 5073
2 1 0 2 8 0 0 0 44 0.000 0 0 -1 0 0 2
	 2628 3828 2628 4278
2 1 0 2 8 0 0 0 44 0.000 0 0 -1 0 0 2
	 1728 4578 1728 5028
2 1 0 4 8 0 0 0 2 0.000 0 0 7 0 0 2
	 2473 3788 1868 4303
2 1 0 2 8 0 0 0 12 0.000 0 0 -1 0 0 2
	 1850 4550 2480 5035
2 1 0 2 8 0 0 0 44 0.000 0 0 7 0 0 2
	 2768 3753 3405 4300
2 1 0 2 8 0 0 0 44 0.000 0 0 7 0 0 2
	 6966 3826 7599 4376
4 0 8 0 0 0 18 0.0000000 4 135 135 6975 2775 a\001
4 0 8 0 0 0 18 0.0000000 4 135 135 6750 3825 a\001
4 0 8 0 0 0 18 0.0000000 4 255 345 1950 3225 (1)\001
4 0 8 0 0 0 18 0.0000000 4 255 345 6525 3225 (2)\001
4 0 8 0 0 0 18 0.0000000 4 255 345 1950 5700 (3)\001
4 0 8 0 0 0 18 0.0000000 4 255 345 6375 5700 (4)\001
4 0 8 0 0 0 18 0.0000000 4 195 135 2551 3751 b\001
4 0 8 0 0 0 18 0.0000000 4 135 135 1652 4502 a\001
