#FIG 3.1
Landscape
Center
Inches
1200 2
1 3 0 5 -1 7 0 0 20 0.0000000 1 0.000 2100 900 150 150 2100 900 2100 1050
1 3 0 5 -1 7 0 0 20 0.0000000 1 0.000 3917 2036 150 150 3917 2036 3917 2186
2 1 0 5 -1 12 0 0 20 0.000 1 0 -1 0 0 4
	 4200 4200 4800 2700 5400 4200 4200 4200
2 1 0 10 8 7 10 0 20 0.000 1 0 -1 0 0 2
	 2100 1800 3900 1500
2 1 0 5 0 7 10 0 20 0.000 1 0 -1 0 0 2
	 2100 1800 1200 3000
2 1 0 5 0 7 10 0 20 0.000 1 0 -1 0 0 2
	 3900 1500 4800 2700
2 1 0 5 0 7 10 0 20 0.000 1 0 -1 0 0 2
	 3000 2400 3000 3000
2 1 0 5 -1 20 0 0 20 0.000 1 0 -1 0 0 4
	 2400 4200 3000 2700 3600 4200 2400 4200
2 1 0 5 -1 11 0 0 20 0.000 1 0 -1 0 0 4
	 1200 2100 600 3600 1800 3600 1200 2100
