#FIG 3.1
Portrait
Center
Inches
1200 2
2 2 0 1 -1 14 0 0 0 0.000 0 0 0 0 0 5
	 6600 9900 6600 9900 6600 9900 6600 9900 6600 9900
2 1 0 1 -1 1 0 0 20 0.000 0 0 -1 0 0 2
	 675 3750 5025 3750
2 1 0 1 -1 1 0 0 20 0.000 0 0 -1 0 0 2
	 9750 3750 10800 3750
2 1 0 1 -1 1 0 0 20 0.000 0 0 -1 0 0 2
	 450 7800 4800 7800
2 1 0 1 -1 1 0 0 20 0.000 0 0 -1 0 0 2
	 8475 11550 12825 11550
2 1 0 1 -1 1 0 0 20 0.000 0 0 -1 0 0 2
	 9075 11550 13425 11550
2 1 0 1 -1 1 0 0 20 0.000 0 0 -1 0 0 2
	 5850 3750 10200 3750
2 1 0 1 -1 1 0 0 20 0.000 0 0 -1 0 0 2
	 1275 3750 5625 3750
2 1 0 1 -1 1 0 0 20 0.000 0 0 -1 0 0 2
	 7275 3750 11625 3750
2 1 0 1 -1 1 0 0 20 0.000 0 0 -1 0 0 2
	 11925 3750 16275 3750
2 1 0 1 -1 1 0 0 20 0.000 0 0 -1 0 0 2
	 13800 3750 18150 3750
2 1 0 1 -1 1 0 0 20 0.000 0 0 -1 0 0 2
	 13725 7800 18075 7800
2 1 0 1 -1 1 0 0 20 0.000 0 0 -1 0 0 2
	 11925 7800 16275 7800
2 1 0 1 -1 1 0 0 20 0.000 0 0 -1 0 0 2
	 6075 7800 10425 7800
2 1 0 1 -1 1 0 0 20 0.000 0 0 -1 0 0 2
	 1050 7800 5400 7800
2 1 0 1 -1 1 0 0 20 0.000 0 0 -1 0 0 2
	 3750 11550 8100 11550
2 1 0 1 -1 1 0 0 20 0.000 0 0 -1 0 0 2
	 2925 11550 7275 11550
2 1 0 1 -1 1 0 0 20 0.000 0 0 -1 0 0 2
	 9975 11550 14325 11550
2 1 0 1 -1 1 0 0 20 0.000 0 0 -1 0 0 2
	 6825 7800 11175 7800
3 3 0 1 -1 17 0 0 20 0.000 0 0 0 19
	 4125 4725 4725 5025 5325 4875 5400 3525 5250 2025 4650 1875
	 2175 1725 1275 2175 1575 2250 2250 1950 4650 2100 4950 2325
	 5100 3525 5025 4575 4875 4725 4650 4725 4275 4575 4125 4725
	 4125 4725
	 4125.00 4725.00 4283.34 4762.38 4550.31 5005.82 4886.05 5042.68
	 5192.98 5034.74 5613.61 4525.78 5406.85 3835.18 5392.36 3179.17
	 5573.30 2399.06 5117.36 1871.54 4790.68 1896.66 4085.99 1788.17
	 2774.06 1602.59 1931.89 1774.68 1254.05 1984.14 1281.44 2233.66
	 1495.59 2256.90 1764.69 2233.53 2072.89 1981.85 2826.57 1846.33
	 4083.94 1891.48 4738.27 2132.52 4898.89 2236.93 5114.83 2609.02
	 5092.60 3246.42 5106.44 3767.49 5139.77 4323.64 5001.87 4625.65
	 4927.85 4703.11 4818.94 4748.22 4702.52 4735.12 4555.71 4706.84
	 4401.07 4549.12 4208.78 4588.59 4107.91 4683.75 4125.00 4725.00
	 4125.00 4725.00 4283.34 4762.38
3 3 0 1 -1 1 0 0 20 0.000 0 0 0 40
	 1215 2205 765 4455 915 4755 1515 4830 1740 4680 2040 3405
	 2340 2880 2490 2805 2640 3180 2190 4605 2340 4905 2865 4980
	 3165 4830 3465 3630 3615 2955 3840 2880 4065 2955 4140 3255
	 3765 5055 4065 5055 4515 3105 4215 2580 3765 2505 3315 2805
	 2940 4605 2715 4680 2640 4605 2565 4455 3015 3030 2715 2505
	 2340 2430 2040 2730 1665 3630 1515 4455 1215 4455 1140 4305
	 1365 3180 1515 2280 1215 2205 1215 2205
	 1215.00 2205.00 1722.26 2823.75 686.55 3869.20 776.47 4540.63
	 834.80 4698.26 1059.58 4857.29 1360.62 4866.44 1584.04 4813.70
	 1698.94 4739.13 1938.87 4393.60 1927.94 3689.58 2091.73 3273.62
	 2229.56 2984.47 2370.63 2851.03 2431.62 2782.80 2630.59 2858.45
	 2636.08 3075.11 2654.49 3568.09 2158.43 4205.72 2197.09 4694.62
	 2260.92 4848.00 2465.04 4995.12 2732.65 5001.48 2948.71 4966.42
	 3106.63 4902.77 3380.27 4561.65 3400.25 3904.30 3501.20 3476.66
	 3476.44 3108.63 3662.53 2902.30 3779.28 2880.00 3900.72 2880.00
	 4017.35 2903.55 4127.12 3022.09 4138.52 3180.27 4148.80 3699.31
	 3362.49 4560.00 3830.68 5135.77 3983.44 5119.88 4609.06 4622.19
	 4592.43 3630.91 4491.61 2946.10 4354.40 2677.10 4109.82 2506.74
	 3883.80 2479.50 3624.16 2535.23 3396.39 2684.52 3038.32 3214.61
	 3307.92 4191.55 2892.54 4658.33 2786.55 4696.89 2683.00 4672.45
	 2654.57 4625.21 2616.96 4573.04 2568.54 4499.81 2533.44 4055.72
	 3058.57 3437.05 2997.37 2865.29 2850.99 2603.01 2628.99 2443.01
	 2447.20 2397.54 2221.07 2466.01 2096.25 2646.01 1910.74 2923.03
	 1728.82 3414.02 1610.12 3815.75 1743.89 4263.97 1433.11 4523.35
	 1294.10 4503.89 1170.78 4427.67 1145.73 4347.82 1100.78 4012.10
	 1317.87 3437.16 1402.48 2975.48 1701.95 2565.14 1451.64 2183.36
	 1212.46 2225.62 1215.00 2205.00 1215.00 2205.00 1722.26 2823.75
3 3 0 1 -1 17 0 0 20 0.000 0 0 0 20
	 10200 4575 10125 4800 10650 4950 11175 4725 11400 2625 10950 2100
	 9900 1950 8925 1950 8625 2100 8625 2400 8850 2400 8925 2175
	 9900 2175 10725 2325 11025 2625 11100 3000 10875 4575 10650 4725
	 10200 4575 10200 4575
	 10200.00 4575.00 10244.60 4636.88 10082.91 4720.21 10221.89 4983.69
	 10508.55 4958.97 10797.97 4940.62 11072.10 4864.27 11555.47 4210.05
	 11570.84 3175.44 11344.07 2444.79 11109.47 2187.54 10705.38 1965.72
	 10142.49 1967.23 9677.10 1934.16 9155.13 1895.67 8845.83 1968.69
	 8679.65 2011.56 8576.12 2179.10 8542.50 2317.50 8686.87 2461.87
	 8789.47 2443.63 8913.81 2354.01 8861.19 2220.99 9187.30 1985.94
	 9676.62 2154.86 10092.11 2192.32 10537.21 2226.61 10820.01 2374.78
	 10974.67 2530.96 11070.37 2709.77 11097.50 2909.89 11110.41 3374.86
	 11108.87 4203.89 10835.25 4638.08 10726.05 4714.81 10516.60 4742.87
	 10193.31 4616.25 10200.00 4575.00 10200.00 4575.00 10244.60 4636.88
3 3 0 1 -1 1 0 0 20 0.000 0 0 0 44
	 8550 2325 7950 4350 7800 4425 7650 4350 7575 4125 8100 2550
	 8025 2400 7650 2175 7050 2175 6675 2250 6450 2550 6000 3675
	 6000 4200 6450 4950 7425 5100 9150 4950 9600 4350 9900 3000
	 10125 2850 10275 2925 10275 3150 9825 4950 10200 4950 10650 2925
	 10425 2625 9900 2550 9450 2925 9150 4275 8775 4575 8250 4800
	 7125 4800 6600 4500 6375 3900 6900 2475 7500 2550 7650 2850
	 7425 3525 7200 4350 7425 4650 8100 4650 8400 4425 9000 2400
	 8550 2325 8550 2325
	 8550.00 2325.00 8965.81 2881.88 8320.78 3907.64 7920.56 4385.13
	 7847.94 4425.00 7752.06 4425.00 7679.63 4384.17 7608.09 4301.68
	 7575.00 4185.72 7575.00 3699.93 8131.74 2996.59 8096.79 2504.89
	 8053.46 2430.73 7950.79 2319.86 7754.42 2203.92 7506.73 2135.32
	 7187.62 2161.37 6962.28 2183.69 6760.42 2196.16 6591.24 2302.79
	 6492.73 2473.97 6311.95 2795.65 6054.47 3392.14 5976.40 3797.56
	 5965.28 4074.64 6057.85 4408.84 6246.76 4813.48 6679.23 5103.98
	 7196.51 5092.47 7826.05 5113.22 8732.72 5181.78 9330.75 4849.61
	 9524.73 4513.65 9738.79 4048.25 9690.92 3305.13 9940.88 2940.34
	 10043.46 2855.08 10175.57 2846.85 10247.67 2880.78 10311.67 2984.32
	 10281.38 3098.21 10222.43 3577.10 9438.51 4455.00 9903.12 5050.05
	 10097.97 5031.84 10764.38 4497.27 10771.63 3488.98 10628.01 2823.05
	 10512.02 2676.52 10301.94 2552.13 10040.42 2510.16 9744.90 2594.00
	 9528.42 2796.32 9264.85 3228.79 9339.50 3970.96 9084.20 4380.58
	 8870.90 4517.53 8660.93 4643.35 8383.75 4772.55 7986.57 4854.07
	 7392.73 4871.10 6981.10 4761.78 6702.10 4619.94 6491.80 4372.89
	 6375.49 4068.06 6373.85 3501.70 6449.75 2749.03 7079.27 2365.89
	 7355.42 2447.71 7580.20 2606.74 7643.59 2759.78 7663.60 3041.40
	 7472.01 3369.72 7368.50 3711.62 7154.50 4111.67 7219.95 4454.51
	 7329.11 4602.06 7597.59 4736.29 7936.04 4704.65 8191.09 4619.64
	 8345.26 4503.71 8708.30 3981.70 9407.90 3052.36 8911.89 2259.09
	 8548.29 2345.62 8550.00 2325.00 8550.00 2325.00 8965.81 2881.88
3 3 0 1 -1 17 0 0 20 0.000 0 0 0 19
	 14175 4575 14100 4725 15000 4950 16800 4950 17775 3675 17775 2025
	 16950 1650 16650 1950 16500 2550 16875 2625 17025 2175 17175 2100
	 17400 2250 17400 3600 16725 4725 16425 4800 15000 4800 14100 4575
	 14175 4575
	 14163.60 4556.55 14200.49 4616.25 14075.88 4672.57 14233.41 5015.06
	 14786.45 4923.71 15414.35 5001.01 16340.53 5177.06 17209.71 4747.53
	 17642.80 4065.50 17910.90 3273.57 18056.73 2462.53 17620.27 1784.70
	 17240.47 1597.33 16814.01 1674.66 16701.79 1858.53 16574.50 2083.35
	 16374.47 2351.65 16577.62 2672.65 16754.11 2695.16 17024.94 2537.98
	 16941.19 2271.64 17054.63 2140.83 17124.43 2096.85 17256.54 2105.08
	 17362.63 2180.17 17586.58 2598.61 17489.28 3277.65 17313.23 3913.27
	 17009.27 4514.36 16658.00 4774.65 16496.18 4791.24 16096.97 4840.38
	 15328.03 4840.38 14786.45 4773.71 14092.38 4636.88 14100.62 4570.00
	 14163.60 4556.55 14200.49 4616.25
3 3 0 1 -1 1 0 0 20 0.000 0 0 0 45
	 16953 2386 16353 4336 15978 4636 15378 4636 14853 4261 14853 4036
	 15228 2836 14928 2536 14253 2536 13278 2536 12828 2761 12678 3286
	 12378 4186 12378 4336 12528 4411 12678 4336 13053 3136 13428 2836
	 14253 2761 14628 2986 14703 3361 14178 4786 13803 4711 14178 3736
	 14253 3436 14178 3286 13728 3286 13503 3436 13128 4111 12903 4561
	 12603 4711 12153 4561 12003 4036 12528 2461 13353 2011 15003 2086
	 15453 2386 15678 2761 15378 3811 15453 4111 15828 4186 16053 3961
	 16578 2311 16953 2386 16953 2386
	 16953.00 2386.00 17349.07 2922.25 16642.34 3910.58 16284.89 4436.14
	 16095.29 4594.86 15831.46 4687.40 15523.16 4682.52 15221.91 4585.98
	 14938.25 4426.66 14823.27 4203.23 14845.05 4088.07 14897.40 3745.04
	 15320.29 3211.09 15196.86 2709.42 15033.71 2579.78 14759.83 2466.34
	 14406.77 2536.00 14030.88 2536.00 13508.13 2481.67 13159.25 2564.03
	 12916.16 2654.78 12732.33 2876.28 12714.78 3167.10 12614.09 3492.58
	 12413.69 3966.02 12372.36 4220.78 12353.56 4296.45 12405.33 4380.22
	 12480.06 4411.00 12575.94 4411.00 12648.47 4370.70 12899.35 4075.86
	 12874.37 3397.40 13121.23 3036.15 13316.14 2881.03 13620.96 2758.32
	 14047.11 2713.90 14361.69 2785.86 14558.76 2887.76 14688.54 3071.91
	 14710.38 3266.25 14673.68 3737.25 14654.89 4519.12 14057.91 4853.21
	 13868.37 4829.78 13624.43 4386.54 14105.97 3963.94 14199.32 3668.53
	 14261.84 3516.53 14248.21 3392.33 14222.22 3313.33 14059.35 3212.67
	 13836.28 3253.21 13662.93 3305.70 13547.60 3387.64 13375.64 3574.11
	 13210.11 3955.32 13074.50 4212.44 12994.08 4469.91 12842.28 4621.72
	 12693.22 4704.59 12475.40 4720.07 12248.57 4660.82 12042.99 4446.10
	 12000.01 4173.77 12012.10 3617.10 12244.66 2799.73 12688.39 2269.26
	 13125.84 2063.46 13752.26 1918.79 14613.87 1958.47 15130.42 2127.76
	 15362.97 2291.59 15525.80 2462.34 15662.38 2642.53 15717.00 3056.84
	 15382.48 3541.82 15376.73 3887.22 15382.94 4044.20 15539.65 4193.62
	 15720.80 4218.46 15917.20 4158.99 16012.73 4027.16 16272.11 3600.98
	 16029.11 2634.59 16699.23 2239.53 16865.29 2377.32 16953.00 2386.00
	 16953.00 2386.00 17349.07 2922.25
3 3 0 1 -1 17 0 0 20 0.000 0 0 0 21
	 12600 8175 12450 8325 13800 8850 16125 8925 17025 8400 17400 6675
	 17100 6375 16125 6150 15075 6150 14850 6450 15000 6450 15225 6300
	 15825 6300 16875 6525 17025 6675 17175 6900 16800 8250 16050 8775
	 14025 8775 12600 8175 12600 8175
	 12600.00 8175.00 12617.09 8216.25 12436.88 8262.61 12539.59 8751.04
	 13465.54 8781.66 14337.13 8959.75 15562.91 9067.28 16376.76 8861.27
	 16856.96 8631.25 17309.70 8008.21 17546.78 7174.77 17364.72 6554.89
	 17192.45 6426.24 16881.97 6254.16 16355.00 6176.19 15883.65 6122.51
	 15343.48 6015.76 14979.11 6197.94 14808.75 6367.50 14866.50 6483.00
	 14963.91 6460.93 15065.07 6430.30 15159.93 6319.70 15369.37 6256.29
	 15687.25 6285.41 16071.54 6326.12 16638.87 6396.54 16921.65 6550.38
	 16994.00 6637.19 17064.52 6723.20 17163.14 6825.83 17236.44 7284.29
	 17010.44 7952.40 16662.50 8444.45 16271.13 8705.29 15560.88 8929.18
	 14498.79 8870.68 13663.24 8701.95 12566.68 8340.00 12600.00 8175.00
	 12600.00 8175.00 12617.09 8216.25
3 3 0 1 -1 1 0 0 20 0.000 0 0 0 41
	 14775 6375 14175 7800 14250 8175 14700 8325 15600 8175 16050 7350
	 16275 7050 16425 7050 16425 7200 15750 8325 14700 8475 14025 8250
	 13950 7950 14175 7050 14100 6750 13800 6600 13125 6600 12750 6750
	 12525 7425 12225 8400 12525 8475 12900 7050 13200 6900 13650 6900
	 13875 7050 13650 8025 13875 8475 14475 8700 15600 8625 16125 8400
	 16800 7125 16650 6825 16275 6675 15975 6750 15375 7875 14850 7950
	 14625 7800 14625 7650 15075 6450 14775 6375 14775 6375
	 14775.00 6375.00 15035.20 6766.88 14214.12 7412.26 14165.32 7895.90
	 14173.54 8088.39 14344.84 8282.43 14584.60 8315.95 14921.97 8342.42
	 15389.35 8324.84 15816.96 8020.67 15933.49 7531.20 16096.49 7277.69
	 16179.11 7097.94 16313.35 7030.82 16383.75 7008.75 16466.25 7091.25
	 16434.92 7164.18 16338.24 7513.27 16057.34 8120.93 15501.53 8489.98
	 14956.20 8498.10 14528.14 8459.50 14167.94 8404.36 13962.88 8182.91
	 13950.00 8025.52 13950.00 7723.43 14175.00 7276.57 14175.00 6974.48
	 14153.82 6817.09 14041.63 6677.23 13879.17 6618.69 13640.68 6562.39
	 13282.58 6569.65 13030.71 6618.16 12827.27 6668.05 12613.88 6894.36
	 12574.47 7270.62 12454.07 7646.34 12035.34 8063.84 12282.49 8501.90
	 12422.13 8535.86 13015.16 8185.00 12642.90 7366.48 12958.52 6977.96
	 13120.83 6918.69 13306.22 6874.93 13541.72 6867.22 13715.07 6919.70
	 13842.53 6968.23 13995.16 7352.59 13619.23 7766.40 13665.47 8155.02
	 13775.59 8385.50 14001.62 8588.99 14322.72 8677.59 14742.94 8739.42
	 15341.64 8687.06 15730.88 8593.56 16016.11 8500.31 16400.03 8146.65
	 16795.16 7541.56 16801.12 7028.15 16715.09 6884.89 16571.62 6752.88
	 16377.55 6681.96 16196.48 6669.67 16042.06 6697.64 15698.49 6965.90
	 15674.97 7664.73 15250.23 7962.46 14986.56 7980.97 14780.37 7934.21
	 14662.37 7869.83 14604.27 7761.27 14618.67 7684.93 14679.11 7351.59
	 15293.17 6865.48 15022.36 6349.75 14772.46 6395.62 14775.00 6375.00
	 14775.00 6375.00 15035.20 6766.88
3 3 0 1 -1 17 0 0 20 0.000 0 0 0 20
	 6675 8475 6600 8625 7275 8925 9375 8925 10500 8250 10875 6600
	 10650 6375 10050 6300 9825 6375 9675 6750 9900 6750 10050 6450
	 10575 6600 10650 6900 10275 8175 9300 8700 8400 8850 7200 8850
	 6675 8475 6675 8475
	 6675.00 8475.00 6700.49 8516.25 6578.48 8565.02 6694.78 8889.18
	 7101.73 8888.23 7767.59 9029.53 8873.57 9063.89 9688.27 8838.23
	 10290.67 8538.96 10769.98 7877.32 11014.02 7081.73 10848.86 6509.41
	 10723.63 6411.01 10510.09 6306.57 10195.28 6285.61 9993.02 6305.64
	 9873.12 6329.63 9743.06 6452.27 9605.18 6646.87 9713.90 6807.45
	 9840.68 6786.66 9988.43 6695.34 9941.14 6497.89 10227.21 6372.04
	 10460.53 6481.66 10639.83 6667.02 10651.57 6823.61 10643.26 7228.31
	 10501.24 7896.05 10086.49 8407.43 9546.46 8615.70 9096.93 8769.46
	 8608.85 8832.71 8125.32 8872.74 7490.31 8943.04 7043.91 8799.98
	 6641.95 8578.12 6675.00 8475.00 6675.00 8475.00 6700.49 8516.25
3 3 0 1 -1 1 0 0 20 0.000 0 0 0 41
	 9975 6675 9450 8325 9075 8550 8325 8700 7425 8700 7125 8325
	 7275 7425 7725 6975 8475 6975 8625 7200 8400 8025 8475 8100
	 8700 8025 8925 7125 8775 6900 8550 6825 7500 6825 7050 7200
	 6750 8700 6450 8700 6750 7050 7125 6675 7650 6525 8925 6600
	 9150 6825 9225 7275 8850 8250 8625 8325 8250 8325 8100 8025
	 8250 7350 8100 7275 7875 7275 7575 7575 7425 8250 7650 8475
	 8550 8475 9225 8175 9675 6675 9975 6675 9975 6675
	 9975.00 6675.00 10306.80 7128.75 9732.82 7967.44 9378.57 8415.31
	 9171.21 8512.80 8906.73 8615.06 8500.43 8682.63 8118.57 8720.44
	 7653.83 8809.98 7302.90 8641.32 7158.36 8453.08 7061.62 8081.66
	 7168.93 7631.11 7348.98 7281.24 7566.44 7040.68 7911.86 6897.60
	 8281.33 6871.35 8544.83 7012.37 8612.99 7126.00 8662.98 7434.00
	 8333.69 7775.31 8408.22 8055.97 8443.00 8092.45 8546.54 8116.89
	 8652.35 8076.45 8886.37 7823.74 8968.51 7376.22 8912.32 7051.77
	 8830.35 6942.28 8726.45 6862.92 8605.00 6833.92 8306.53 6785.49
	 7757.35 6731.83 7356.43 6876.98 7127.62 7069.53 6847.29 7540.71
	 7166.97 8358.16 6668.23 8767.04 6517.74 8781.17 6071.31 8246.25
	 6553.22 7425.57 6812.23 6931.23 7012.84 6741.00 7240.48 6607.05
	 7522.13 6539.09 7949.10 6492.03 8617.74 6462.03 9001.55 6634.37
	 9113.01 6753.12 9203.03 6928.05 9236.37 7162.81 9198.97 7531.89
	 9061.78 8047.62 8801.92 8295.95 8680.00 8316.08 8538.04 8339.11
	 8348.87 8386.11 8161.57 8270.34 8110.64 8111.39 8078.08 7846.90
	 8352.32 7564.96 8225.19 7297.86 8139.58 7284.34 8046.89 7262.46
	 7931.06 7251.78 7769.29 7318.79 7625.99 7482.12 7491.90 7726.38
	 7367.84 8053.70 7451.31 8340.33 7570.72 8442.16 7874.23 8567.88
	 8338.89 8519.80 8723.27 8438.23 9089.28 8329.11 9512.74 7848.26
	 9252.15 6989.61 9756.00 6614.73 9906.66 6675.00 9975.00 6675.00
	 9975.00 6675.00 10306.80 7128.75
3 3 0 1 -1 17 0 0 20 0.000 0 0 0 19
	 4200 8550 4050 8700 4575 8700 4950 8475 5175 6975 4875 6600
	 3525 6300 1950 6300 1500 6675 1650 6750 2100 6450 3450 6450
	 4725 6750 4950 6975 4800 8250 4800 8250 4575 8550 4200 8550
	 4200 8550
	 4200.00 8550.00 4217.09 8591.25 4032.91 8658.75 4092.29 8802.09
	 4449.64 8734.72 4679.42 8671.08 4881.82 8576.91 5186.47 8121.55
	 5282.94 7376.01 5140.83 6848.03 4980.58 6665.81 4570.96 6410.50
	 3842.68 6334.87 3163.20 6260.28 2336.02 6160.24 1806.43 6351.98
	 1479.67 6499.84 1505.82 6725.15 1599.43 6753.15 1813.07 6739.85
	 1969.86 6489.40 2424.84 6351.65 3139.59 6413.98 3751.17 6484.95
	 4440.31 6591.42 4794.16 6788.53 4920.48 6889.97 5069.10 7318.05
	 4488.20 7899.37 4800.00 8250.00 4800.00 8250.00 4841.25 8332.50
	 4670.89 8502.06 4479.11 8597.94 4200.00 8550.00 4200.00 8550.00
	 4200.00 8550.00 4217.09 8591.25
3 3 0 1 -1 1 0 0 20 0.000 0 0 0 43
	 1425 6600 825 7875 825 8250 1125 8625 1725 8775 3675 8625
	 3900 8250 3975 7425 3825 7275 2925 7200 2625 7425 2250 8175
	 2025 8175 1950 8025 2550 7125 2850 7050 3975 7125 4200 7500
	 4050 8250 3750 8775 4050 8775 4425 7950 4425 7275 4050 6900
	 2700 6750 2175 7050 1800 7650 1575 8175 1800 8400 2400 8400
	 2625 8250 3000 7500 3150 7500 3675 7575 3600 8175 3450 8325
	 2850 8475 1800 8550 1275 8325 1200 7875 1725 6675 1425 6600
	 1425 6600
	 1425.00 6600.00 1647.51 6950.63 899.10 7543.50 805.28 7963.22
	 792.87 8158.42 866.14 8367.29 1021.25 8558.42 1258.62 8710.74
	 1580.23 8762.80 2182.81 8813.59 3193.94 8922.31 3782.57 8558.52
	 3867.20 8350.46 3962.12 8059.69 4053.89 7642.89 3954.80 7369.20
	 3875.30 7298.33 3610.86 7175.68 3153.88 7134.14 2829.96 7227.35
	 2683.27 7355.18 2494.70 7581.13 2471.09 8038.36 2190.68 8211.66
	 2084.32 8211.66 1980.78 8147.67 1946.85 8075.57 1970.31 7698.85
	 2315.86 7290.00 2616.94 7077.83 2777.78 7056.46 3113.31 7026.45
	 3695.55 6954.26 4083.39 7191.22 4180.23 7385.89 4234.57 7699.57
	 4113.00 8081.73 4000.19 8383.03 3666.21 8630.62 3791.57 8846.63
	 3970.45 8826.22 4290.30 8620.27 4378.90 8162.81 4459.33 7791.49
	 4494.66 7443.18 4370.27 7142.87 4173.71 6959.46 3733.15 6747.71
	 3038.98 6679.78 2549.10 6781.26 2281.55 6947.57 2050.32 7169.86
	 1875.21 7506.14 1739.28 7766.13 1540.18 7994.19 1594.40 8275.73
	 1720.72 8367.16 1949.49 8461.92 2255.63 8443.71 2465.07 8380.30
	 2580.93 8299.92 2761.65 8095.21 2778.91 7636.64 3039.55 7475.56
	 3115.71 7497.56 3271.24 7508.62 3550.90 7412.53 3816.50 7760.25
	 3668.43 8035.09 3575.99 8224.08 3495.74 8299.10 3316.66 8400.50
	 2990.40 8452.61 2611.03 8513.11 2052.59 8592.52 1662.94 8526.93
	 1379.13 8457.65 1191.83 8219.05 1185.90 7988.45 1240.47 7549.29
	 1930.07 7092.36 1676.59 6576.47 1422.46 6620.62 1425.00 6600.00
	 1425.00 6600.00 1647.51 6950.63
3 3 0 1 -1 17 0 0 20 0.000 0 0 0 20
	 4575 12150 4500 12300 6150 12675 6975 12600 7350 12225 7650 10575
	 7350 10275 5850 10050 3900 10125 3675 10500 3900 10500 4125 10275
	 6000 10200 7275 10500 7350 10725 7050 12300 6600 12525 5850 12450
	 4575 12150 4575 12150
	 4575.00 12150.00 4600.49 12191.25 4475.65 12248.53 4745.65 12819.31
	 5753.95 12648.66 6343.90 12687.89 6779.45 12691.59 7100.19 12541.37
	 7287.77 12343.77 7546.78 11849.43 7795.33 11040.23 7613.23 10457.30
	 7446.76 10323.80 7004.08 10100.53 6198.66 10069.27 5401.42 10025.21
	 4393.86 9832.70 3789.33 10190.51 3616.61 10396.87 3705.04 10553.06
	 3843.94 10523.22 3979.28 10467.16 4047.59 10308.89 4581.51 10075.13
	 5565.04 10158.31 6303.60 10229.10 6987.23 10237.21 7327.11 10547.58
	 7346.11 10666.88 7376.28 11117.89 7325.54 11935.78 6963.54 12414.29
	 6723.45 12502.28 6415.06 12559.04 6020.25 12478.42 5554.15 12400.62
	 4565.42 12232.50 4575.00 12150.00 4575.00 12150.00 4600.49 12191.25
3 3 0 1 -1 1 0 0 20 0.000 0 0 0 45
	 3675 10425 3150 11775 3225 12075 3750 12225 4050 12000 4350 11025
	 4725 10875 6525 10800 6750 11100 6600 12000 6450 12150 6300 12075
	 6300 11925 6450 11250 6375 11100 6150 11025 5475 11025 4950 11100
	 4725 11400 4500 11925 4425 12225 4500 12375 4575 12300 5100 11325
	 5475 11250 6000 11325 6000 11625 5925 12150 6300 12375 6675 12300
	 6900 12000 7050 11025 6825 10725 6525 10500 4575 10575 4200 10725
	 3975 11325 3750 11925 3600 11850 3450 11775 3450 11625 3750 11025
	 3900 10500 3675 10425 3675 10425
	 3675.00 10425.00 3928.97 10796.25 3173.12 11408.27 3145.06 11853.29
	 3160.17 12007.98 3339.47 12193.34 3596.87 12253.28 3855.17 12205.58
	 3995.04 12078.15 4199.50 11787.41 4155.38 11236.27 4427.05 10941.35
	 4631.92 10894.94 5140.18 10786.04 6051.15 10575.29 6623.63 10846.78
	 6725.82 11000.85 6808.83 11341.25 6706.06 11793.89 6575.34 12047.92
	 6519.44 12138.73 6395.10 12158.91 6327.33 12119.22 6275.56 12035.45
	 6296.22 11959.46 6317.44 11766.16 6471.92 11428.10 6444.68 11206.81
	 6409.17 11129.63 6326.68 11058.09 6204.99 11033.92 5993.48 10999.60
	 5629.32 11014.03 5353.76 11033.62 5073.06 11027.13 4862.98 11151.53
	 4768.49 11324.77 4658.76 11514.58 4541.86 11800.74 4477.34 11992.28
	 4416.16 12144.47 4429.79 12268.67 4446.76 12366.36 4533.67 12380.46
	 4560.21 12319.88 4729.44 12092.43 4850.65 11509.54 5186.11 11261.27
	 5384.90 11252.50 5599.95 11246.53 5874.10 11179.85 6071.22 11407.11
	 6004.87 11556.42 5991.39 11746.24 5852.15 11996.95 5985.07 12276.21
	 6185.89 12355.24 6399.79 12392.28 6589.58 12353.84 6758.76 12247.21
	 6864.49 12084.45 6993.42 11777.86 7114.91 11284.15 7025.33 10926.49
	 6886.87 10786.87 6763.13 10663.13 6617.88 10528.99 6041.64 10349.14
	 5025.16 10479.29 4481.83 10594.81 4277.58 10645.71 4076.91 10850.80
	 4026.26 11188.31 3923.74 11461.69 3969.49 11838.81 3692.56 11947.56
	 3634.17 11867.09 3565.83 11832.91 3477.33 11819.22 3425.56 11735.45
	 3441.64 11660.41 3487.38 11466.66 3694.03 11168.90 3795.56 10907.87
	 3996.94 10683.78 3857.89 10420.17 3671.65 10445.62 3675.00 10425.00
	 3675.00 10425.00 3928.97 10796.25
3 3 0 1 -1 17 0 0 20 0.000 0 0 0 20
	 9000 11925 8850 12150 10275 12600 12450 12825 13500 12375 13950 10350
	 13500 9900 13125 9900 12750 10575 13050 10575 13275 10125 13350 10125
	 13575 10350 13650 10650 13275 12075 12825 12450 12375 12675 10200 12450
	 8925 12000 9000 11925
	 8995.55 11921.36 9011.33 11934.29 8820.34 12065.73 9013.92 12615.68
	 9937.53 12530.02 10768.80 12702.40 11919.39 12905.69 12727.21 12782.84
	 13289.74 12628.57 13881.80 11914.55 14121.49 10938.89 13897.39 10169.34
	 13658.56 9965.68 13406.57 9861.30 13223.18 9842.23 12922.83 10018.96
	 12640.78 10389.37 12792.44 10647.12 12970.90 10623.89 13182.65 10493.02
	 13142.35 10206.98 13294.77 10112.78 13331.31 10117.26 13429.28 10157.84
	 13536.16 10281.39 13612.75 10416.67 13650.47 10574.22 13647.78 11011.10
	 13475.86 11759.33 13195.15 12200.49 12938.48 12375.78 12727.54 12513.75
	 12498.61 12652.47 11837.76 12772.92 10694.17 12561.12 9894.43 12381.29
	 9012.71 12386.67 8918.12 11969.67 8995.55 11921.36 9011.33 11934.29
3 3 0 1 -1 1 0 0 20 0.000 0 0 0 42
	 12753 10364 12153 12239 12003 12239 11928 12239 11853 12089 12303 10814
	 12228 10589 11928 10514 11478 10514 11103 10739 10728 11939 10578 12014
	 10428 12014 10353 11864 10803 10739 10728 10514 10353 10439 9603 10514
	 9153 10889 8778 12014 8853 12239 8853 12239 9078 12089 9528 11039
	 9903 10814 10278 10739 10353 10889 9978 11864 10128 12164 10578 12314
	 11028 12164 11403 10889 11703 10814 11928 10889 11928 11114 11553 12164
	 11703 12464 12303 12464 12528 12239 13053 10439 12753 10439 12753 10364
	 12759.29 10364.98 12588.01 10338.25 12683.41 11851.82 12112.59 12268.50
	 12037.17 12239.00 11985.91 12239.00 11947.77 12251.22 11883.78 12211.67
	 11855.83 12134.45 11830.19 11722.56 12299.95 11162.26 12303.54 10752.91
	 12279.45 10636.65 12160.91 10526.88 11999.18 10522.76 11824.41 10501.25
	 11585.45 10484.24 11373.58 10542.92 11174.33 10648.33 10897.93 10999.65
	 10949.35 11678.86 10698.47 11973.70 10617.58 12004.66 10542.59 12022.36
	 10467.55 12038.44 10383.78 11986.67 10354.92 11910.26 10339.10 11529.78
	 10793.70 11055.55 10804.82 10677.04 10781.72 10561.42 10641.39 10437.54
	 10442.33 10443.37 10176.94 10430.39 9778.14 10440.53 9466.89 10571.10
	 9235.16 10768.62 8986.68 11132.69 8778.00 11710.38 8778.00 12074.72
	 8789.19 12193.01 8853.00 12239.00 8853.00 12239.00 8918.07 12219.30
	 9034.66 12141.10 9261.08 11868.90 9336.82 11258.02 9601.19 10955.16
	 9806.79 10851.20 9987.14 10781.47 10160.95 10681.75 10329.33 10764.10
	 10350.78 10843.00 10366.83 11175.51 9964.17 11577.49 9982.44 11955.99
	 10059.67 12104.74 10224.64 12247.81 10456.55 12314.00 10699.45 12314.00
	 10932.37 12263.11 11295.94 11886.32 11114.89 11165.51 11470.04 10824.66
	 11625.83 10811.04 11762.19 10816.27 11882.01 10825.19 11971.63 10949.53
	 11937.06 11061.71 11883.12 11373.14 11534.72 11861.35 11558.50 12255.05
	 11614.57 12409.35 11861.20 12561.77 12153.51 12525.92 12382.28 12431.16
	 12488.28 12306.09 12762.07 11843.69 13424.25 10934.00 12993.60 10359.80
	 12835.50 10521.50 12732.38 10418.38 12759.29 10364.98 12588.01 10338.25
4 0 -1 0 0 0 36 0.0000000 4 360 255 3900 5700 1\001
4 0 -1 0 0 0 36 0.0000000 4 360 255 3075 5700 2\001
4 0 -1 0 0 0 36 0.0000000 4 360 255 2400 5700 3\001
4 0 -1 0 0 0 36 0.0000000 4 360 255 1575 5700 4\001
4 0 -1 0 0 0 36 0.0000000 4 360 255 975 5700 5\001
4 0 -1 0 0 0 36 0.0000000 4 360 255 975 9525 5\001
4 0 -1 0 0 0 36 0.0000000 4 360 255 2475 9525 3\001
4 0 -1 0 0 0 36 0.0000000 4 360 255 1725 9525 2\001
4 0 -1 0 0 0 36 0.0000000 4 360 255 3225 9525 4\001
4 0 -1 0 0 0 36 0.0000000 4 360 255 3975 9525 1\001
4 0 -1 0 0 0 36 0.0000000 4 360 255 4875 5700 6\001
4 0 -1 0 0 0 36 0.0000000 4 360 255 6150 5700 3\001
4 0 -1 0 0 0 36 0.0000000 4 360 255 7950 5700 5\001
4 0 -1 0 0 0 36 0.0000000 4 360 255 8925 5700 2\001
4 0 -1 0 0 0 36 0.0000000 4 360 255 9750 5700 1\001
4 0 -1 0 0 0 36 0.0000000 4 360 255 7050 5700 4\001
4 0 -1 0 0 0 36 0.0000000 4 360 255 10650 5700 6\001
4 0 -1 0 0 0 36 0.0000000 4 360 255 16050 5700 5\001
4 0 -1 0 0 0 36 0.0000000 4 360 255 15000 5700 4\001
4 0 -1 0 0 0 36 0.0000000 4 360 255 13950 5700 1\001
4 0 -1 0 0 0 36 0.0000000 4 360 255 12075 5700 3\001
4 0 -1 0 0 0 36 0.0000000 4 360 255 12975 5700 2\001
4 0 -1 0 0 0 36 0.0000000 4 360 255 17025 5700 6\001
4 0 -1 0 0 0 36 0.0000000 4 360 255 15975 9600 3\001
4 0 -1 0 0 0 36 0.0000000 4 360 255 15225 9600 4\001
4 0 -1 0 0 0 36 0.0000000 4 360 255 14475 9600 5\001
4 0 -1 0 0 0 36 0.0000000 4 360 255 13650 9600 2\001
4 0 -1 0 0 0 36 0.0000000 4 360 255 12600 9600 1\001
4 0 -1 0 0 0 36 0.0000000 4 360 255 16800 9600 6\001
4 0 -1 0 0 0 36 0.0000000 4 360 255 7275 9600 4\001
4 0 -1 0 0 0 36 0.0000000 4 360 255 6450 9600 1\001
4 0 -1 0 0 0 36 0.0000000 4 360 255 8025 9600 3\001
4 0 -1 0 0 0 36 0.0000000 4 360 255 8700 9600 2\001
4 0 -1 0 0 0 36 0.0000000 4 360 255 9375 9600 5\001
4 0 -1 0 0 0 36 0.0000000 4 360 255 10050 9600 6\001
4 0 -1 0 0 0 36 0.0000000 4 360 255 4650 9525 6\001
4 0 -1 0 0 0 36 0.0000000 4 360 255 3900 13350 4\001
4 0 -1 0 0 0 36 0.0000000 4 360 255 4650 13350 1\001
4 0 -1 0 0 0 36 0.0000000 4 360 255 3225 13350 5\001
4 0 -1 0 0 0 36 0.0000000 4 360 255 5850 13350 2\001
4 0 -1 0 0 0 36 0.0000000 4 360 255 6525 13350 3\001
4 0 -1 0 0 0 36 0.0000000 4 360 255 7125 13350 6\001
4 0 -1 0 0 0 36 0.0000000 4 360 255 9075 13350 1\001
4 0 -1 0 0 0 36 0.0000000 4 360 255 9975 13350 2\001
4 0 -1 0 0 0 36 0.0000000 4 360 255 10800 13350 3\001
4 0 -1 0 0 0 36 0.0000000 4 360 255 11625 13350 4\001
4 0 -1 0 0 0 36 0.0000000 4 360 255 12525 13350 5\001
4 0 -1 0 0 0 36 0.0000000 4 360 255 13275 13350 6\001
