#FIG 3.1
Portrait
Center
Inches
1200 2
2 3 0 1 -1 14 0 0 20 0.000 0 0 -1 0 0 6
	 900 4800 1200 4800 1200 3000 900 3000 900 4800 900 4800
2 3 0 1 -1 0 0 0 20 0.000 0 0 -1 0 0 6
	 1200 3000 1500 3000 1500 4800 1200 4800 1200 3000 1200 3000
2 3 0 1 -1 0 0 0 20 0.000 0 0 -1 0 0 6
	 1800 3000 2100 3000 2100 4800 1800 4800 1800 3000 1800 3000
2 3 0 1 -1 14 0 0 20 0.000 0 0 -1 0 0 6
	 2100 4800 2400 4800 2400 3000 2100 3000 2100 4800 2100 4800
2 3 0 1 -1 14 0 0 20 0.000 0 0 -1 0 0 6
	 2700 4800 3000 4800 3000 3000 2700 3000 2700 4800 2700 4800
2 3 0 1 -1 0 0 0 20 0.000 0 0 -1 0 0 6
	 3000 3000 3300 3000 3300 4800 3000 4800 3000 3000 3000 3000
2 3 0 1 -1 0 0 0 20 0.000 0 0 -1 0 0 6
	 3600 3000 3900 3000 3900 4800 3600 4800 3600 3000 3600 3000
2 3 0 1 -1 14 0 0 20 0.000 0 0 -1 0 0 6
	 3900 4800 4200 4800 4200 3000 3900 3000 3900 4800 3900 4800
2 3 0 1 -1 21 0 0 20 0.000 0 0 -1 0 0 6
	 1500 3000 1800 3000 1800 3150 1500 3150 1500 3000 1500 3000
2 3 0 1 -1 21 0 0 20 0.000 0 0 -1 0 0 6
	 2400 4650 2700 4650 2700 4800 2400 4800 2400 4650 2400 4650
2 3 0 1 -1 21 0 0 20 0.000 0 0 -1 0 0 6
	 3300 3000 3600 3000 3600 3150 3300 3150 3300 3000 3300 3000
2 2 0 1 -1 14 0 0 0 0.000 0 0 0 0 0 5
	 6600 9900 6600 9900 6600 9900 6600 9900 6600 9900
2 3 0 1 -1 0 0 0 20 0.000 0 0 -1 0 0 6
	 9900 3000 10200 3000 10200 4800 9900 4800 9900 3000 9900 3000
2 3 0 1 -1 14 0 0 20 0.000 0 0 -1 0 0 6
	 10200 4800 10500 4800 10500 3000 10200 3000 10200 4800 10200 4800
2 3 0 1 -1 21 0 0 20 0.000 0 0 -1 0 0 6
	 10500 3000 10800 3000 10800 3150 10500 3150 10500 3000 10500 3000
2 3 0 1 -1 14 0 0 20 0.000 0 0 -1 0 0 6
	 10800 4500 11100 4500 11100 3000 10800 3000 10800 4500 10800 4500
2 3 0 1 -1 0 0 0 20 0.000 0 0 -1 0 0 5
	 11100 3000 11400 3000 11400 4500 11100 4500 11100 3000
2 3 0 1 -1 21 0 0 20 0.000 0 0 -1 0 0 6
	 10500 4650 12600 4650 12600 4800 10500 4800 10500 4650 10500 4650
2 3 0 1 -1 14 0 0 20 0.000 0 0 -1 0 0 6
	 12600 4800 12900 4800 12900 3000 12600 3000 12600 4800 12600 4800
2 3 0 1 -1 0 0 0 20 0.000 0 0 -1 0 0 6
	 12900 3000 13200 3000 13200 4800 12900 4800 12900 3000 12900 3000
2 3 0 1 -1 21 0 0 20 0.000 0 0 -1 0 0 6
	 12300 3000 12600 3000 12600 3150 12300 3150 12300 3000 12300 3000
2 3 0 1 -1 14 0 0 20 0.000 0 0 -1 0 0 6
	 12000 4500 12300 4500 12300 3000 12000 3000 12000 4500 12000 4500
2 3 0 1 -1 0 0 0 20 0.000 0 0 -1 0 0 5
	 11700 3000 12000 3000 12000 4500 11700 4500 11700 3000
2 3 0 1 -1 0 0 0 20 0.000 0 0 -1 0 0 6
	 14700 3075 15000 3075 15000 4875 14700 4875 14700 3075 14700 3075
2 3 0 1 -1 21 0 0 20 0.000 0 0 -1 0 0 6
	 15000 3075 17100 3075 17100 3225 15000 3225 15000 3075 15000 3075
2 3 0 1 -1 0 0 0 20 0.000 0 0 -1 0 0 6
	 17100 3075 17400 3075 17400 4875 17100 4875 17100 3075 17100 3075
2 3 0 1 -1 14 0 0 20 0.000 0 0 -1 0 0 6
	 17400 4875 17700 4875 17700 3075 17400 3075 17400 4875 17400 4875
2 3 0 1 -1 21 0 0 20 0.000 0 0 -1 0 0 6
	 16800 4725 17100 4725 17100 4875 16800 4875 16800 4725 16800 4725
2 3 0 1 -1 0 0 0 20 0.000 0 0 -1 0 0 5
	 16500 3375 16800 3375 16800 4875 16500 4875 16500 3375
2 3 0 1 -1 14 0 0 20 0.000 0 0 -1 0 0 6
	 16200 4875 16500 4875 16500 3375 16200 3375 16200 4875 16200 4875
2 3 0 1 -1 21 0 0 20 0.000 0 0 -1 0 0 6
	 15900 3375 16200 3375 16200 3525 15900 3525 15900 3375 15900 3375
2 3 0 1 -1 14 0 0 20 0.000 0 0 -1 0 0 6
	 15600 4875 15900 4875 15900 3375 15600 3375 15600 4875 15600 4875
2 3 0 1 -1 0 0 0 20 0.000 0 0 -1 0 0 5
	 15300 3375 15600 3375 15600 4875 15300 4875 15300 3375
2 3 0 1 -1 14 0 0 20 0.000 0 0 -1 0 0 6
	 14400 4875 14700 4875 14700 3075 14400 3075 14400 4875 14400 4875
2 3 0 1 -1 14 0 0 20 0.000 0 0 -1 0 0 6
	 5325 4800 5625 4800 5625 3000 5325 3000 5325 4800 5325 4800
2 3 0 1 -1 0 0 0 20 0.000 0 0 -1 0 0 6
	 5625 3000 5925 3000 5925 4800 5625 4800 5625 3000 5625 3000
2 3 0 1 -1 21 0 0 20 0.000 0 0 -1 0 0 6
	 5925 3000 6225 3000 6225 3150 5925 3150 5925 3000 5925 3000
2 3 0 1 -1 0 0 0 20 0.000 0 0 -1 0 0 6
	 6225 3000 6525 3000 6525 4800 6225 4800 6225 3000 6225 3000
2 3 0 1 -1 14 0 0 20 0.000 0 0 -1 0 0 6
	 6525 4800 6825 4800 6825 3000 6525 3000 6525 4800 6525 4800
2 3 0 1 -1 21 0 0 20 0.000 0 0 -1 0 0 6
	 6825 4650 8025 4650 8025 4800 6825 4800 6825 4650 6825 4650
2 2 0 1 -1 14 0 0 20 0.000 0 0 0 0 0 5
	 8025 3000 8325 3000 8325 4800 8025 4800 8025 3000
2 2 0 1 -1 14 0 0 0 0.000 0 0 0 0 0 5
	 8325 3000 8625 3000 8625 4800 8325 4800 8325 3000
2 3 0 1 -1 21 0 0 20 0.000 0 0 -1 0 0 6
	 7725 3000 8025 3000 8025 3150 7725 3150 7725 3000 7725 3000
2 2 0 1 -1 14 0 0 20 0.000 0 0 0 0 0 5
	 7725 3000 7425 3000 7425 4500 7725 4500 7725 3000
2 2 0 1 -1 14 0 0 0 0.000 0 0 0 0 0 5
	 7425 3000 7125 3000 7125 4500 7425 4500 7425 3000
2 3 0 1 -1 14 0 0 20 0.000 0 0 -1 0 0 6
	 7650 7875 7950 7875 7950 6075 7650 6075 7650 7875 7650 7875
2 3 0 1 -1 0 0 0 20 0.000 0 0 -1 0 0 6
	 7950 6075 8250 6075 8250 7875 7950 7875 7950 6075 7950 6075
2 3 0 1 -1 21 0 0 20 0.000 0 0 -1 0 0 6
	 8250 6075 10350 6075 10350 6225 8250 6225 8250 6075 8250 6075
2 3 0 1 -1 0 0 0 20 0.000 0 0 -1 0 0 6
	 10350 6075 10650 6075 10650 7875 10350 7875 10350 6075 10350 6075
2 3 0 1 -1 14 0 0 20 0.000 0 0 -1 0 0 6
	 10650 7875 10950 7875 10950 6075 10650 6075 10650 7875 10650 7875
2 3 0 1 -1 21 0 0 20 0.000 0 0 -1 0 0 6
	 9150 7725 10350 7725 10350 7875 9150 7875 9150 7725 9150 7725
2 2 0 1 -1 14 0 0 0 0.000 0 0 0 0 0 5
	 9150 7875 8850 7875 8850 6375 9150 6375 9150 7875
2 2 0 1 -1 14 0 0 20 0.000 0 0 0 0 0 5
	 8850 7875 8550 7875 8550 6375 8850 6375 8850 7875
2 3 0 1 -1 21 0 0 20 0.000 0 0 -1 0 0 6
	 9150 6375 9450 6375 9450 6525 9150 6525 9150 6375 9150 6375
2 2 0 1 -1 14 0 0 0 0.000 0 0 0 0 0 5
	 9450 6375 9750 6375 9750 7575 9450 7575 9450 6375
2 2 0 1 -1 14 0 0 20 0.000 0 0 0 0 0 5
	 9750 6375 10050 6375 10050 7575 9750 7575 9750 6375
4 1 -1 0 0 0 36 0.0000000 4 360 255 2100 5400 2\001
4 1 -1 0 0 0 36 0.0000000 4 360 255 1200 5400 1\001
4 1 -1 0 0 0 36 0.0000000 4 360 255 3000 5400 3\001
4 1 -1 0 0 0 36 0.0000000 4 360 255 3900 5400 4\001
4 1 -1 0 0 0 36 0.0000000 4 360 255 10200 5475 2\001
4 1 -1 0 0 0 36 0.0000000 4 360 255 11100 5475 1\001
4 1 -1 0 0 0 36 0.0000000 4 360 255 12000 5475 4\001
4 1 -1 0 0 0 36 0.0000000 4 360 255 12900 5475 3\001
4 1 -1 0 0 0 36 0.0000000 4 360 255 14700 5475 1\001
4 1 -1 0 0 0 36 0.0000000 4 360 255 15600 5475 4\001
4 1 -1 0 0 0 36 0.0000000 4 360 255 16500 5475 3\001
4 1 -1 0 0 0 36 0.0000000 4 360 255 17400 5475 2\001
4 1 -1 0 0 0 36 0.0000000 4 360 255 5625 5400 1\001
4 1 -1 0 0 0 36 0.0000000 4 360 255 6525 5400 2\001
4 1 -1 0 0 0 36 0.0000000 4 360 255 7425 5400 4\001
4 1 -1 0 0 0 36 0.0000000 4 360 255 8325 5400 3\001
4 1 -1 0 0 0 36 0.0000000 4 360 255 7950 8475 1\001
4 1 -1 0 0 0 36 0.0000000 4 360 255 8850 8475 3\001
4 1 -1 0 0 0 36 0.0000000 4 360 255 9750 8475 4\001
4 1 -1 0 0 0 36 0.0000000 4 360 255 10650 8475 2\001
